module github.com/ava-labs/avalanchego

go 1.14

require (
	github.com/AppsFlyer/go-sundheit v0.2.0
	github.com/Microsoft/go-winio v0.4.14
	github.com/ava-labs/coreth v0.2.15-rc.4 // indirect
	github.com/ava-labs/go-ethereum v1.9.3
	github.com/blocknetdx/go-xrouter v0.8.1
	github.com/btcsuite/btcd v0.20.1-beta
	github.com/btcsuite/btcutil v1.0.2
	github.com/decred/dcrd/dcrec/secp256k1/v3 v3.0.0-20200627015759-01fd2de07837
	github.com/dgrijalva/jwt-go v3.2.0+incompatible
	github.com/golang/protobuf v1.4.2
	github.com/google/uuid v1.1.1
	github.com/gorilla/handlers v1.4.2
	github.com/gorilla/mux v1.7.4
	github.com/gorilla/rpc v1.2.0
	github.com/gorilla/websocket v1.4.2
	github.com/hashicorp/go-hclog v0.14.1
	github.com/hashicorp/go-plugin v1.3.0
	github.com/huin/goupnp v1.0.0
	github.com/jackpal/gateway v1.0.6
	github.com/jackpal/go-nat-pmp v1.0.2
	github.com/mitchellh/go-homedir v1.1.0
	github.com/mr-tron/base58 v1.2.0
	github.com/nbutton23/zxcvbn-go v0.0.0-20180912185939-ae427f1e4c1d
	github.com/prometheus/client_golang v1.7.1
	github.com/rs/cors v1.7.0
	github.com/stretchr/testify v1.4.0
	github.com/syndtr/goleveldb v1.0.0
	golang.org/x/crypto v0.0.0-20200622213623-75b288015ac9
	golang.org/x/net v0.0.0-20200520182314-0ba52f642ac2
	google.golang.org/grpc v1.29.1
)

replace github.com/btcsuite/btcd => github.com/blocknetdx/btcd v0.20.1-beta.0.20200618032145-59a950423708